
{   "sitetitle":"Michael Valentino",
    "title":"My Trip to Turks and Caicos",
    "slides":[
        {
            "image_file_name":"image1.jpg",
            "image_path":"/img/",
            "caption":"Awww, John's having a great time!"    
        },
          {
            "image_file_name":"image2.jpg",
            "image_path":"/img/",
            "caption":"Wow, a family acting like a family. Adorable."    
        },
          {
            "image_file_name":"image3.jpg",
            "image_path":"/img/",
            "caption":"Andrew on his phone sitting in a cabana."    
        },
          {
            "image_file_name":"image4.jpg",
            "image_path":"/img/",
            "caption":"Alcoholic beverage. Definitely a simpler time."    
        },
          {
            "image_file_name":"image5.jpg",
            "image_path":"/img/",
            "caption":"They pretty much look identical and it is scary."    
        },
          {
            "image_file_name":"image6.jpg",
            "image_path":"/img/",
            "caption":"Wow! What a lovely couple."    
        },
          {
            "image_file_name":"image7.jpg",
            "image_path":"/img/",
            "caption":"Not the most flattering picture but whatever!"    
        },
          {
            "image_file_name":"image8.jpg",
            "image_path":"/img/",
            "caption":"We had a butler and she did this type thing everyday."    
        },
          {
            "image_file_name":"image9.jpg",
            "image_path":"/img/",
            "caption":"Another rather awkward photo, but everyone important is here!"    
        },
          {
            "image_file_name":"image10.jpg",
            "image_path":"/img/",
            "caption":"We pretty much define what white people are."    
        },
          {
            "image_file_name":"image11.jpg",
            "image_path":"/img/",
            "caption":"An extremely rare photo of the current generation."    
        },
          {
            "image_file_name":"image12.jpg",
            "image_path":"/img/",
            "caption":"They even go on sail boats together! Adorable."    
        },
          {
            "image_file_name":"image13.jpg",
            "image_path":"/img/",
            "caption":"My parents pretty much like to selfie."    
        },
          {
            "image_file_name":"image14.jpg",
            "image_path":"/img/",
            "caption":"Look at how carefree life is here."    
        },
          {
            "image_file_name":"image15.jpg",
            "image_path":"/img/",
            "caption":"We're in a pool. There is a swim up bar behind us."    
        },
          {
            "image_file_name":"image16.jpg",
            "image_path":"/img/",
            "caption":"Can you believe she doesn't like going on vacation?"    
        },
          {
            "image_file_name":"image17.jpg",
            "image_path":"/img/",
            "caption":"And, here's my dad on a float he stole!"    
        }
       
    ]
}